https://beta.wrap.org.uk/node/21712,Published,05/16/2019 - 12:39
https://beta.wrap.org.uk/node/3005,Published,05/16/2019 - 12:35
https://beta.wrap.org.uk/node/3022,Published,05/16/2019 - 11:20
https://beta.wrap.org.uk/node/3007,Published,05/16/2019 - 10:46
https://beta.wrap.org.uk/node/3008,Published,05/16/2019 - 10:32
https://beta.wrap.org.uk/node/21787,Unpublished,05/16/2019 - 09:56
https://beta.wrap.org.uk/node/21713,Published,05/16/2019 - 09:29
https://beta.wrap.org.uk/node/3026,Published,05/16/2019 - 09:19
https://beta.wrap.org.uk/node/3010,Published,05/16/2019 - 08:42
https://beta.wrap.org.uk/node/3025,Published,05/16/2019 - 08:37
https://beta.wrap.org.uk/node/3012,Published,05/16/2019 - 08:15
https://beta.wrap.org.uk/node/3003,Published,05/15/2019 - 15:56
https://beta.wrap.org.uk/node/21711,Published,05/15/2019 - 15:30
https://beta.wrap.org.uk/node/21709,Published,05/15/2019 - 15:19
https://beta.wrap.org.uk/node/21707,Published,05/15/2019 - 14:54
https://beta.wrap.org.uk/node/21705,Published,05/15/2019 - 14:35
https://beta.wrap.org.uk/node/2869,Published,05/15/2019 - 14:21
https://beta.wrap.org.uk/node/14598,Published,05/15/2019 - 14:07
https://beta.wrap.org.uk/node/14575,Published,05/15/2019 - 13:29
https://beta.wrap.org.uk/node/3101,Published,05/15/2019 - 13:04
https://beta.wrap.org.uk/node/14607,Published,05/15/2019 - 12:50
https://beta.wrap.org.uk/node/14602,Published,05/15/2019 - 12:40
https://beta.wrap.org.uk/node/14605,Published,05/15/2019 - 12:09
https://beta.wrap.org.uk/node/14604,Published,05/15/2019 - 12:07
https://beta.wrap.org.uk/node/14608,Published,05/15/2019 - 12:06
https://beta.wrap.org.uk/node/21721,Published,05/15/2019 - 11:34
https://beta.wrap.org.uk/node/14601,Published,05/15/2019 - 11:08
https://beta.wrap.org.uk/node/14600,Published,05/15/2019 - 11:00
https://beta.wrap.org.uk/node/14599,Published,05/15/2019 - 10:56
https://beta.wrap.org.uk/node/14606,Published,05/15/2019 - 10:53
https://beta.wrap.org.uk/node/14594,Published,05/15/2019 - 10:23
https://beta.wrap.org.uk/node/14593,Published,05/15/2019 - 09:11
https://beta.wrap.org.uk/node/14572,Published,05/14/2019 - 15:07
https://beta.wrap.org.uk/node/14567,Published,05/14/2019 - 14:32
https://beta.wrap.org.uk/node/2619,Published,05/14/2019 - 13:49
https://beta.wrap.org.uk/node/14537,Published,05/14/2019 - 13:48
https://beta.wrap.org.uk/node/2733,Published,05/14/2019 - 13:24
https://beta.wrap.org.uk/node/14570,Published,05/14/2019 - 13:01
https://beta.wrap.org.uk/node/2648,Published,05/14/2019 - 11:25
https://beta.wrap.org.uk/node/14565,Published,05/14/2019 - 11:18
https://beta.wrap.org.uk/node/2960,Published,05/14/2019 - 09:40
https://beta.wrap.org.uk/node/3060,Published,05/13/2019 - 14:54
https://beta.wrap.org.uk/node/3027,Published,05/13/2019 - 14:13
https://beta.wrap.org.uk/node/3181,Published,05/13/2019 - 13:38
https://beta.wrap.org.uk/node/21694,Published,05/13/2019 - 13:24
https://beta.wrap.org.uk/node/2735,Published,05/13/2019 - 13:23
https://beta.wrap.org.uk/node/21692,Published,05/13/2019 - 12:41
https://beta.wrap.org.uk/node/21688,Published,05/13/2019 - 11:48
https://beta.wrap.org.uk/node/2653,Published,05/13/2019 - 11:18
https://beta.wrap.org.uk/node/2962,Published,05/13/2019 - 11:08
https://beta.wrap.org.uk/node/3180,Published,05/13/2019 - 11:06
https://beta.wrap.org.uk/node/2656,Published,05/13/2019 - 10:51
https://beta.wrap.org.uk/node/2961,Published,05/13/2019 - 10:40
https://beta.wrap.org.uk/node/2743,Published,05/13/2019 - 10:29
https://beta.wrap.org.uk/node/2786,Published,05/13/2019 - 10:24
https://beta.wrap.org.uk/node/2759,Published,05/13/2019 - 10:22
https://beta.wrap.org.uk/node/2693,Published,05/13/2019 - 10:16
https://beta.wrap.org.uk/node/2696,Published,05/13/2019 - 10:14
https://beta.wrap.org.uk/node/14588,Published,05/13/2019 - 09:46
https://beta.wrap.org.uk/node/2959,Published,05/13/2019 - 09:02
https://beta.wrap.org.uk/node/21781,Published,05/13/2019 - 08:44
https://beta.wrap.org.uk/node/21779,Published,05/13/2019 - 08:39
https://beta.wrap.org.uk/node/21776,Published,05/13/2019 - 08:37
https://beta.wrap.org.uk/node/21774,Published,05/13/2019 - 08:34
https://beta.wrap.org.uk/node/21738,Published,05/13/2019 - 08:31
https://beta.wrap.org.uk/node/3232,Published,05/10/2019 - 16:36
https://beta.wrap.org.uk/node/3213,Published,05/10/2019 - 16:25
https://beta.wrap.org.uk/node/2927,Published,05/10/2019 - 16:23
https://beta.wrap.org.uk/node/2943,Published,05/10/2019 - 16:16
https://beta.wrap.org.uk/node/2604,Published,05/10/2019 - 16:15
https://beta.wrap.org.uk/node/2800,Published,05/10/2019 - 16:08
https://beta.wrap.org.uk/node/14597,Published,05/10/2019 - 15:57
https://beta.wrap.org.uk/node/2694,Published,05/10/2019 - 15:51
https://beta.wrap.org.uk/node/2901,Published,05/10/2019 - 15:49
https://beta.wrap.org.uk/node/3179,Published,05/10/2019 - 15:37
https://beta.wrap.org.uk/node/21767,Published,05/10/2019 - 14:58
https://beta.wrap.org.uk/node/2719,Published,05/10/2019 - 14:46
https://beta.wrap.org.uk/node/2676,Published,05/10/2019 - 14:43
https://beta.wrap.org.uk/node/21760,Published,05/10/2019 - 14:41
https://beta.wrap.org.uk/node/21748,Published,05/10/2019 - 14:33
https://beta.wrap.org.uk/node/3192,Published,05/10/2019 - 14:15
https://beta.wrap.org.uk/node/3113,Published,05/10/2019 - 14:12
https://beta.wrap.org.uk/node/3107,Published,05/10/2019 - 14:03
https://beta.wrap.org.uk/node/2794,Published,05/10/2019 - 13:58
https://beta.wrap.org.uk/node/2770,Published,05/10/2019 - 13:51
https://beta.wrap.org.uk/node/3111,Published,05/10/2019 - 13:50
https://beta.wrap.org.uk/node/2968,Published,05/10/2019 - 13:28
https://beta.wrap.org.uk/node/2772,Published,05/10/2019 - 13:15
https://beta.wrap.org.uk/node/21743,Published,05/10/2019 - 13:02
https://beta.wrap.org.uk/node/21742,Published,05/10/2019 - 13:01
https://beta.wrap.org.uk/node/21737,Published,05/10/2019 - 12:57
https://beta.wrap.org.uk/node/21736,Published,05/10/2019 - 12:45
https://beta.wrap.org.uk/node/21735,Published,05/10/2019 - 12:28
https://beta.wrap.org.uk/node/21731,Published,05/10/2019 - 12:15
https://beta.wrap.org.uk/node/21716,Published,05/10/2019 - 12:06
https://beta.wrap.org.uk/node/21763,Published,05/10/2019 - 11:16
https://beta.wrap.org.uk/node/2649,Published,05/10/2019 - 11:14
https://beta.wrap.org.uk/node/21745,Published,05/10/2019 - 10:46
https://beta.wrap.org.uk/node/21750,Published,05/10/2019 - 10:40
https://beta.wrap.org.uk/node/2647,Published,05/10/2019 - 10:34
https://beta.wrap.org.uk/node/21744,Published,05/10/2019 - 10:28
https://beta.wrap.org.uk/node/2646,Published,05/10/2019 - 10:18
https://beta.wrap.org.uk/node/2645,Published,05/10/2019 - 10:03
https://beta.wrap.org.uk/node/21734,Published,05/10/2019 - 09:59
https://beta.wrap.org.uk/node/21733,Published,05/10/2019 - 09:56
https://beta.wrap.org.uk/node/2958,Published,05/10/2019 - 09:45
https://beta.wrap.org.uk/node/21715,Published,05/10/2019 - 09:42
https://beta.wrap.org.uk/node/21751,Published,05/10/2019 - 09:23
https://beta.wrap.org.uk/node/2644,Published,05/10/2019 - 09:19
https://beta.wrap.org.uk/node/21759,Published,05/10/2019 - 09:08
https://beta.wrap.org.uk/node/21754,Published,05/10/2019 - 09:05
https://beta.wrap.org.uk/node/21753,Published,05/10/2019 - 09:03
https://beta.wrap.org.uk/node/21752,Unpublished,05/10/2019 - 09:02
https://beta.wrap.org.uk/node/2643,Published,05/10/2019 - 08:49
https://beta.wrap.org.uk/node/21770,Published,05/10/2019 - 06:32
https://beta.wrap.org.uk/node/21769,Published,05/09/2019 - 14:22
https://beta.wrap.org.uk/node/21768,Published,05/09/2019 - 14:01
https://beta.wrap.org.uk/node/21766,Published,05/09/2019 - 10:21
https://beta.wrap.org.uk/node/21765,Published,05/09/2019 - 09:49
https://beta.wrap.org.uk/node/21764,Published,05/09/2019 - 09:25
https://beta.wrap.org.uk/node/21762,Published,05/09/2019 - 08:56
https://beta.wrap.org.uk/node/21761,Published,05/09/2019 - 08:32
https://beta.wrap.org.uk/node/2795,Published,05/08/2019 - 14:32
https://beta.wrap.org.uk/node/21747,Published,05/08/2019 - 11:28
https://beta.wrap.org.uk/node/21749,Published,05/08/2019 - 11:13
https://beta.wrap.org.uk/node/2652,Published,05/08/2019 - 10:32
https://beta.wrap.org.uk/node/2669,Published,05/08/2019 - 10:19
https://beta.wrap.org.uk/node/3086,Published,05/08/2019 - 10:17
https://beta.wrap.org.uk/node/3108,Published,05/08/2019 - 10:14
https://beta.wrap.org.uk/node/21746,Published,05/07/2019 - 20:05
https://beta.wrap.org.uk/node/2739,Published,05/07/2019 - 14:33
https://beta.wrap.org.uk/node/3080,Published,05/07/2019 - 13:51
https://beta.wrap.org.uk/node/21740,Published,05/07/2019 - 13:35
https://beta.wrap.org.uk/node/2603,Published,05/07/2019 - 12:37
https://beta.wrap.org.uk/node/3041,Published,05/07/2019 - 08:59
https://beta.wrap.org.uk/node/3028,Published,05/03/2019 - 15:54
https://beta.wrap.org.uk/node/3098,Published,05/03/2019 - 15:07
https://beta.wrap.org.uk/node/2758,Published,05/03/2019 - 15:02
https://beta.wrap.org.uk/node/2757,Published,05/03/2019 - 14:46
https://beta.wrap.org.uk/node/2716,Published,05/03/2019 - 14:35
https://beta.wrap.org.uk/node/3081,Published,05/03/2019 - 11:29
https://beta.wrap.org.uk/node/2896,Published,05/03/2019 - 11:25
https://beta.wrap.org.uk/node/21732,Published,05/03/2019 - 09:49
https://beta.wrap.org.uk/node/3096,Published,05/03/2019 - 09:37
https://beta.wrap.org.uk/node/2695,Published,05/02/2019 - 15:46
https://beta.wrap.org.uk/node/2900,Published,05/02/2019 - 14:09
https://beta.wrap.org.uk/node/21697,Published,05/01/2019 - 14:53
https://beta.wrap.org.uk/node/2672,Published,05/01/2019 - 14:47
https://beta.wrap.org.uk/node/2673,Published,05/01/2019 - 14:33
https://beta.wrap.org.uk/node/3092,Published,05/01/2019 - 13:54
https://beta.wrap.org.uk/node/3097,Published,05/01/2019 - 10:57
https://beta.wrap.org.uk/node/2737,Published,05/01/2019 - 10:38
152,,
https://beta.wrap.org.uk/node/2755,Published,04/30/2019 - 15:44
https://beta.wrap.org.uk/node/21698,Published,04/30/2019 - 13:53
https://beta.wrap.org.uk/node/2725,Published,04/30/2019 - 13:30
https://beta.wrap.org.uk/node/21700,Published,04/30/2019 - 13:12
https://beta.wrap.org.uk/node/2705,Published,04/30/2019 - 13:03
https://beta.wrap.org.uk/node/21710,Published,04/30/2019 - 12:55
https://beta.wrap.org.uk/node/3306,Published,04/30/2019 - 12:48
https://beta.wrap.org.uk/node/21708,Published,04/30/2019 - 12:48
https://beta.wrap.org.uk/node/2902,Published,04/30/2019 - 12:39
https://beta.wrap.org.uk/node/3174,Published,04/30/2019 - 12:25
https://beta.wrap.org.uk/node/21704,Published,04/30/2019 - 12:12
https://beta.wrap.org.uk/node/21703,Published,04/30/2019 - 12:03
https://beta.wrap.org.uk/node/3110,Published,04/30/2019 - 11:56
https://beta.wrap.org.uk/node/2763,Published,04/30/2019 - 11:21
https://beta.wrap.org.uk/node/3037,Published,04/30/2019 - 11:10
https://beta.wrap.org.uk/node/3076,Published,04/30/2019 - 11:10
https://beta.wrap.org.uk/node/2674,Published,04/30/2019 - 10:47
https://beta.wrap.org.uk/node/2991,Published,04/30/2019 - 09:45
https://beta.wrap.org.uk/node/2799,Published,04/30/2019 - 08:22
https://beta.wrap.org.uk/node/2907,Published,04/30/2019 - 07:47
https://beta.wrap.org.uk/node/2801,Published,04/30/2019 - 07:31
https://beta.wrap.org.uk/node/2914,Published,04/29/2019 - 14:55
https://beta.wrap.org.uk/node/2913,Published,04/29/2019 - 14:55
https://beta.wrap.org.uk/node/2910,Published,04/29/2019 - 14:44
https://beta.wrap.org.uk/node/2908,Published,04/29/2019 - 14:37
https://beta.wrap.org.uk/node/2920,Published,04/29/2019 - 14:07
https://beta.wrap.org.uk/node/2916,Published,04/29/2019 - 14:04
https://beta.wrap.org.uk/node/2912,Published,04/29/2019 - 14:04
https://beta.wrap.org.uk/node/2919,Published,04/29/2019 - 14:01
https://beta.wrap.org.uk/node/2918,Published,04/29/2019 - 14:01
https://beta.wrap.org.uk/node/2915,Published,04/29/2019 - 14:00
https://beta.wrap.org.uk/node/21699,Published,04/29/2019 - 13:17
https://beta.wrap.org.uk/node/21702,Published,04/29/2019 - 13:10
https://beta.wrap.org.uk/node/2906,Published,04/29/2019 - 13:03
https://beta.wrap.org.uk/node/2905,Published,04/29/2019 - 13:01
https://beta.wrap.org.uk/node/2904,Published,04/29/2019 - 12:59
https://beta.wrap.org.uk/node/2903,Published,04/29/2019 - 12:56
https://beta.wrap.org.uk/node/2798,Published,04/29/2019 - 12:34
https://beta.wrap.org.uk/node/2897,Published,04/29/2019 - 11:24
https://beta.wrap.org.uk/node/2797,Published,04/29/2019 - 10:58
https://beta.wrap.org.uk/node/3118,Published,04/29/2019 - 10:54
https://beta.wrap.org.uk/node/3117,Published,04/29/2019 - 10:17
https://beta.wrap.org.uk/node/3190,Published,04/29/2019 - 08:50
https://beta.wrap.org.uk/node/3189,Published,04/29/2019 - 08:48
https://beta.wrap.org.uk/node/3188,Published,04/29/2019 - 08:47
https://beta.wrap.org.uk/node/3187,Published,04/29/2019 - 08:45
https://beta.wrap.org.uk/node/3186,Published,04/29/2019 - 08:43
https://beta.wrap.org.uk/node/3185,Published,04/29/2019 - 08:42
https://beta.wrap.org.uk/node/3184,Published,04/29/2019 - 08:40
https://beta.wrap.org.uk/node/3183,Published,04/29/2019 - 08:39
https://beta.wrap.org.uk/node/3182,Published,04/29/2019 - 08:38
https://beta.wrap.org.uk/node/3172,Published,04/29/2019 - 07:47
https://beta.wrap.org.uk/node/2785,Published,04/29/2019 - 07:33
https://beta.wrap.org.uk/node/3043,Published,04/29/2019 - 03:28
https://beta.wrap.org.uk/node/21706,Published,04/29/2019 - 03:09
https://beta.wrap.org.uk/node/3004,Published,04/26/2019 - 15:17
https://beta.wrap.org.uk/node/3042,Published,04/26/2019 - 15:03
https://beta.wrap.org.uk/node/2999,Published,04/26/2019 - 14:42
https://beta.wrap.org.uk/node/2998,Published,04/26/2019 - 14:40
https://beta.wrap.org.uk/node/3177,Published,04/26/2019 - 14:05
https://beta.wrap.org.uk/node/3178,Published,04/26/2019 - 14:04
https://beta.wrap.org.uk/node/3176,Published,04/26/2019 - 14:03
https://beta.wrap.org.uk/node/3173,Published,04/26/2019 - 14:03
https://beta.wrap.org.uk/node/3175,Published,04/26/2019 - 14:00
https://beta.wrap.org.uk/node/2997,Published,04/26/2019 - 13:56
https://beta.wrap.org.uk/node/2861,Published,04/26/2019 - 13:54
https://beta.wrap.org.uk/node/3048,Published,04/26/2019 - 13:52
https://beta.wrap.org.uk/node/3169,Published,04/26/2019 - 13:48
https://beta.wrap.org.uk/node/3168,Published,04/26/2019 - 13:46
https://beta.wrap.org.uk/node/3167,Published,04/26/2019 - 13:27
https://beta.wrap.org.uk/node/3166,Published,04/26/2019 - 13:23
https://beta.wrap.org.uk/node/3140,Published,04/26/2019 - 13:12
https://beta.wrap.org.uk/node/3141,Published,04/26/2019 - 13:04
https://beta.wrap.org.uk/node/3142,Published,04/26/2019 - 12:53
https://beta.wrap.org.uk/node/3145,Published,04/26/2019 - 12:45
https://beta.wrap.org.uk/node/3146,Published,04/26/2019 - 12:30
https://beta.wrap.org.uk/node/3147,Published,04/26/2019 - 12:25
https://beta.wrap.org.uk/node/3058,Published,04/26/2019 - 12:22
https://beta.wrap.org.uk/node/3148,Published,04/26/2019 - 12:22
https://beta.wrap.org.uk/node/3050,Published,04/26/2019 - 12:20
https://beta.wrap.org.uk/node/3149,Published,04/26/2019 - 12:19
https://beta.wrap.org.uk/node/3150,Published,04/26/2019 - 12:19
https://beta.wrap.org.uk/node/3047,Published,04/26/2019 - 12:18
https://beta.wrap.org.uk/node/3053,Published,04/26/2019 - 12:17
https://beta.wrap.org.uk/node/3046,Published,04/26/2019 - 12:16
https://beta.wrap.org.uk/node/3045,Published,04/26/2019 - 12:15
https://beta.wrap.org.uk/node/3049,Published,04/26/2019 - 12:13
https://beta.wrap.org.uk/node/3051,Published,04/26/2019 - 12:11
https://beta.wrap.org.uk/node/3054,Published,04/26/2019 - 12:10
https://beta.wrap.org.uk/node/3055,Published,04/26/2019 - 12:09
https://beta.wrap.org.uk/node/3056,Published,04/26/2019 - 12:07
https://beta.wrap.org.uk/node/3151,Published,04/26/2019 - 12:06
https://beta.wrap.org.uk/node/3044,Published,04/26/2019 - 11:29
https://beta.wrap.org.uk/node/3052,Published,04/26/2019 - 11:22
https://beta.wrap.org.uk/node/3170,Published,04/26/2019 - 11:10
https://beta.wrap.org.uk/node/3171,Published,04/26/2019 - 11:05
https://beta.wrap.org.uk/node/3164,Published,04/26/2019 - 11:00
https://beta.wrap.org.uk/node/3165,Published,04/26/2019 - 10:58
https://beta.wrap.org.uk/node/3163,Published,04/26/2019 - 09:33
https://beta.wrap.org.uk/node/14658,Published,04/26/2019 - 09:30
https://beta.wrap.org.uk/node/14659,Published,04/26/2019 - 09:30
https://beta.wrap.org.uk/node/3158,Published,04/26/2019 - 09:27
https://beta.wrap.org.uk/node/3159,Published,04/26/2019 - 09:21
https://beta.wrap.org.uk/node/3160,Published,04/26/2019 - 09:14
https://beta.wrap.org.uk/node/3161,Published,04/26/2019 - 09:04
https://beta.wrap.org.uk/node/3162,Published,04/26/2019 - 09:02
https://beta.wrap.org.uk/node/3258,Published,04/26/2019 - 08:54
https://beta.wrap.org.uk/node/3257,Published,04/26/2019 - 08:54
https://beta.wrap.org.uk/node/3256,Published,04/26/2019 - 08:54
https://beta.wrap.org.uk/node/3255,Published,04/26/2019 - 08:54
https://beta.wrap.org.uk/node/14589,Published,04/26/2019 - 08:54
https://beta.wrap.org.uk/node/14579,Published,04/26/2019 - 08:29
https://beta.wrap.org.uk/node/14590,Published,04/26/2019 - 08:29
https://beta.wrap.org.uk/node/14581,Published,04/26/2019 - 08:29
https://beta.wrap.org.uk/node/14591,Published,04/26/2019 - 08:29
https://beta.wrap.org.uk/node/14582,Published,04/26/2019 - 08:28
https://beta.wrap.org.uk/node/14584,Published,04/26/2019 - 08:21
https://beta.wrap.org.uk/node/3247,Published,04/26/2019 - 08:21
https://beta.wrap.org.uk/node/3240,Published,04/26/2019 - 08:21
https://beta.wrap.org.uk/node/3239,Published,04/26/2019 - 08:20
https://beta.wrap.org.uk/node/3238,Published,04/26/2019 - 08:20
https://beta.wrap.org.uk/node/3236,Published,04/26/2019 - 08:13
https://beta.wrap.org.uk/node/3235,Published,04/26/2019 - 08:12
https://beta.wrap.org.uk/node/3234,Published,04/26/2019 - 08:12
https://beta.wrap.org.uk/node/3217,Published,04/26/2019 - 08:06
https://beta.wrap.org.uk/node/3218,Published,04/26/2019 - 08:06
https://beta.wrap.org.uk/node/14587,Published,04/26/2019 - 08:06
https://beta.wrap.org.uk/node/3237,Published,04/26/2019 - 08:04
https://beta.wrap.org.uk/node/3193,Published,04/26/2019 - 08:04
https://beta.wrap.org.uk/node/3241,Published,04/26/2019 - 08:02
https://beta.wrap.org.uk/node/3197,Published,04/26/2019 - 08:01
https://beta.wrap.org.uk/node/3200,Published,04/26/2019 - 08:01
https://beta.wrap.org.uk/node/3220,Published,04/26/2019 - 07:58
https://beta.wrap.org.uk/node/3223,Published,04/26/2019 - 07:58
https://beta.wrap.org.uk/node/3221,Published,04/26/2019 - 07:57
https://beta.wrap.org.uk/node/3222,Published,04/26/2019 - 07:57
https://beta.wrap.org.uk/node/3225,Published,04/26/2019 - 07:57
https://beta.wrap.org.uk/node/3227,Published,04/26/2019 - 07:57
https://beta.wrap.org.uk/node/3228,Published,04/26/2019 - 07:44
https://beta.wrap.org.uk/node/3231,Published,04/26/2019 - 07:44
https://beta.wrap.org.uk/node/3230,Published,04/26/2019 - 07:43
https://beta.wrap.org.uk/node/3229,Published,04/26/2019 - 07:43
https://beta.wrap.org.uk/node/3226,Published,04/26/2019 - 07:43
https://beta.wrap.org.uk/node/14583,Published,04/26/2019 - 07:42
https://beta.wrap.org.uk/node/3216,Published,04/26/2019 - 07:40
https://beta.wrap.org.uk/node/14580,Published,04/26/2019 - 07:34
https://beta.wrap.org.uk/node/3212,Published,04/26/2019 - 07:33
https://beta.wrap.org.uk/node/3211,Published,04/26/2019 - 07:33
https://beta.wrap.org.uk/node/3210,Published,04/26/2019 - 07:13
https://beta.wrap.org.uk/node/3209,Published,04/26/2019 - 07:12
https://beta.wrap.org.uk/node/3208,Published,04/26/2019 - 07:12
https://beta.wrap.org.uk/node/3207,Published,04/26/2019 - 07:12
https://beta.wrap.org.uk/node/3206,Published,04/26/2019 - 06:55
https://beta.wrap.org.uk/node/3205,Published,04/26/2019 - 06:55
https://beta.wrap.org.uk/node/3204,Published,04/26/2019 - 06:55
https://beta.wrap.org.uk/node/3203,Published,04/26/2019 - 06:46
https://beta.wrap.org.uk/node/3202,Published,04/26/2019 - 06:45
https://beta.wrap.org.uk/node/3201,Published,04/26/2019 - 06:43
https://beta.wrap.org.uk/node/2752,Published,04/25/2019 - 14:44
https://beta.wrap.org.uk/node/3157,Published,04/25/2019 - 14:27
https://beta.wrap.org.uk/node/3156,Published,04/25/2019 - 14:27
https://beta.wrap.org.uk/node/3155,Published,04/25/2019 - 14:27
https://beta.wrap.org.uk/node/3154,Published,04/25/2019 - 14:14
https://beta.wrap.org.uk/node/3137,Published,04/25/2019 - 14:13
https://beta.wrap.org.uk/node/3131,Published,04/25/2019 - 14:13
https://beta.wrap.org.uk/node/3136,Published,04/25/2019 - 14:13
https://beta.wrap.org.uk/node/3135,Published,04/25/2019 - 14:12
https://beta.wrap.org.uk/node/3134,Published,04/25/2019 - 13:35
https://beta.wrap.org.uk/node/3129,Published,04/25/2019 - 13:35
https://beta.wrap.org.uk/node/3128,Published,04/25/2019 - 13:34
https://beta.wrap.org.uk/node/3123,Published,04/25/2019 - 13:23
https://beta.wrap.org.uk/node/3130,Published,04/25/2019 - 13:22
https://beta.wrap.org.uk/node/3144,Published,04/25/2019 - 13:10
https://beta.wrap.org.uk/node/3124,Published,04/25/2019 - 13:05
https://beta.wrap.org.uk/node/3138,Published,04/25/2019 - 12:59
https://beta.wrap.org.uk/node/3122,Published,04/25/2019 - 12:55
https://beta.wrap.org.uk/node/3121,Published,04/25/2019 - 12:28
https://beta.wrap.org.uk/node/3132,Published,04/25/2019 - 12:26
https://beta.wrap.org.uk/node/3125,Published,04/25/2019 - 12:21
https://beta.wrap.org.uk/node/3127,Published,04/25/2019 - 12:19
https://beta.wrap.org.uk/node/3126,Published,04/25/2019 - 12:16
https://beta.wrap.org.uk/node/3120,Published,04/25/2019 - 12:09
https://beta.wrap.org.uk/node/3059,Published,04/25/2019 - 12:05
https://beta.wrap.org.uk/node/3119,Published,04/25/2019 - 11:58
https://beta.wrap.org.uk/node/3116,Published,04/25/2019 - 11:46
https://beta.wrap.org.uk/node/3115,Published,04/25/2019 - 11:27
https://beta.wrap.org.uk/node/2762,Published,04/25/2019 - 11:17
https://beta.wrap.org.uk/node/2761,Published,04/25/2019 - 11:12
https://beta.wrap.org.uk/node/3099,Published,04/25/2019 - 10:50
https://beta.wrap.org.uk/node/2750,Published,04/25/2019 - 10:09
https://beta.wrap.org.uk/node/3095,Published,04/25/2019 - 10:07
https://beta.wrap.org.uk/node/3038,Published,04/25/2019 - 09:13
https://beta.wrap.org.uk/node/3091,Published,04/25/2019 - 09:07
https://beta.wrap.org.uk/node/3090,Published,04/25/2019 - 08:58
https://beta.wrap.org.uk/node/2898,Published,04/25/2019 - 08:38
https://beta.wrap.org.uk/node/2754,Published,04/25/2019 - 08:35
https://beta.wrap.org.uk/node/2751,Published,04/25/2019 - 08:21
https://beta.wrap.org.uk/node/2749,Published,04/25/2019 - 08:13
https://beta.wrap.org.uk/node/2747,Published,04/25/2019 - 08:10
https://beta.wrap.org.uk/node/2876,Published,04/25/2019 - 08:06
https://beta.wrap.org.uk/node/3088,Published,04/25/2019 - 08:01
https://beta.wrap.org.uk/node/2745,Published,04/25/2019 - 07:58
https://beta.wrap.org.uk/node/2744,Published,04/25/2019 - 07:33
https://beta.wrap.org.uk/node/2993,Published,04/24/2019 - 16:14
https://beta.wrap.org.uk/node/2992,Published,04/24/2019 - 16:12
https://beta.wrap.org.uk/node/3275,Published,04/24/2019 - 14:37
https://beta.wrap.org.uk/node/3279,Published,04/24/2019 - 14:37
https://beta.wrap.org.uk/node/3281,Published,04/24/2019 - 14:36
https://beta.wrap.org.uk/node/3288,Published,04/24/2019 - 14:18
https://beta.wrap.org.uk/node/3294,Published,04/24/2019 - 14:18
https://beta.wrap.org.uk/node/3215,Published,04/24/2019 - 14:09
https://beta.wrap.org.uk/node/3273,Published,04/24/2019 - 14:04
https://beta.wrap.org.uk/node/3261,Published,04/24/2019 - 14:01
https://beta.wrap.org.uk/node/3267,Published,04/24/2019 - 13:54
https://beta.wrap.org.uk/node/3272,Published,04/24/2019 - 13:51
https://beta.wrap.org.uk/node/2732,Published,04/24/2019 - 13:29
https://beta.wrap.org.uk/node/2730,Published,04/24/2019 - 13:17
https://beta.wrap.org.uk/node/14654,Published,04/24/2019 - 13:13
https://beta.wrap.org.uk/node/2893,Published,04/24/2019 - 13:11
https://beta.wrap.org.uk/node/2728,Published,04/24/2019 - 13:08
https://beta.wrap.org.uk/node/2874,Published,04/24/2019 - 12:16
https://beta.wrap.org.uk/node/2978,Published,04/24/2019 - 12:08
https://beta.wrap.org.uk/node/3029,Published,04/24/2019 - 12:07
https://beta.wrap.org.uk/node/3030,Published,04/24/2019 - 12:05
https://beta.wrap.org.uk/node/3031,Published,04/24/2019 - 12:03
https://beta.wrap.org.uk/node/3032,Published,04/24/2019 - 12:02
https://beta.wrap.org.uk/node/3033,Published,04/24/2019 - 12:01
https://beta.wrap.org.uk/node/3034,Published,04/24/2019 - 11:59
https://beta.wrap.org.uk/node/3035,Published,04/24/2019 - 11:58
https://beta.wrap.org.uk/node/2713,Published,04/24/2019 - 11:38
https://beta.wrap.org.uk/node/2727,Published,04/24/2019 - 11:36
https://beta.wrap.org.uk/node/2726,Published,04/24/2019 - 11:05
https://beta.wrap.org.uk/node/2731,Published,04/24/2019 - 10:53
https://beta.wrap.org.uk/node/2722,Published,04/24/2019 - 10:50
https://beta.wrap.org.uk/node/2879,Published,04/24/2019 - 10:29
https://beta.wrap.org.uk/node/2721,Published,04/24/2019 - 10:22
https://beta.wrap.org.uk/node/2718,Published,04/24/2019 - 09:57
https://beta.wrap.org.uk/node/2756,Published,04/24/2019 - 09:51
https://beta.wrap.org.uk/node/2715,Published,04/24/2019 - 09:45
https://beta.wrap.org.uk/node/2872,Published,04/24/2019 - 09:15
https://beta.wrap.org.uk/node/2711,Published,04/24/2019 - 09:06
https://beta.wrap.org.uk/node/2710,Published,04/24/2019 - 09:02
https://beta.wrap.org.uk/node/2709,Published,04/24/2019 - 08:48
https://beta.wrap.org.uk/node/2707,Published,04/24/2019 - 08:26
https://beta.wrap.org.uk/node/2708,Published,04/24/2019 - 08:22
https://beta.wrap.org.uk/node/2706,Published,04/24/2019 - 08:02
https://beta.wrap.org.uk/node/2704,Published,04/24/2019 - 07:58
https://beta.wrap.org.uk/node/2703,Published,04/24/2019 - 07:54
https://beta.wrap.org.uk/node/2965,Published,04/24/2019 - 07:53
https://beta.wrap.org.uk/node/2784,Published,04/24/2019 - 07:16
https://beta.wrap.org.uk/node/2768,Published,04/23/2019 - 14:40
https://beta.wrap.org.uk/node/2882,Published,04/23/2019 - 14:35
https://beta.wrap.org.uk/node/2766,Published,04/23/2019 - 14:25
https://beta.wrap.org.uk/node/3301,Published,04/23/2019 - 14:00
https://beta.wrap.org.uk/node/2779,Published,04/23/2019 - 13:31
https://beta.wrap.org.uk/node/2782,Published,04/23/2019 - 13:30
https://beta.wrap.org.uk/node/2783,Published,04/23/2019 - 13:18
https://beta.wrap.org.uk/node/2780,Published,04/23/2019 - 13:08
https://beta.wrap.org.uk/node/2777,Published,04/23/2019 - 13:06
https://beta.wrap.org.uk/node/2778,Published,04/23/2019 - 13:04
https://beta.wrap.org.uk/node/2781,Published,04/23/2019 - 13:03
https://beta.wrap.org.uk/node/3270,Published,04/23/2019 - 12:58
https://beta.wrap.org.uk/node/3269,Published,04/23/2019 - 12:58
https://beta.wrap.org.uk/node/3153,Published,04/23/2019 - 12:48
https://beta.wrap.org.uk/node/3152,Published,04/23/2019 - 12:45
https://beta.wrap.org.uk/node/3094,Published,04/23/2019 - 12:42
https://beta.wrap.org.uk/node/2678,Published,04/23/2019 - 11:52
https://beta.wrap.org.uk/node/3085,Published,04/23/2019 - 11:38
https://beta.wrap.org.uk/node/3089,Published,04/23/2019 - 10:16
https://beta.wrap.org.uk/node/3133,Published,04/23/2019 - 09:53
https://beta.wrap.org.uk/node/2720,Published,04/23/2019 - 09:48
https://beta.wrap.org.uk/node/3265,Published,04/23/2019 - 09:38
https://beta.wrap.org.uk/node/3084,Published,04/23/2019 - 09:35
https://beta.wrap.org.uk/node/3077,Published,04/23/2019 - 08:49
https://beta.wrap.org.uk/node/2692,Published,04/23/2019 - 08:45
https://beta.wrap.org.uk/node/2682,Published,04/23/2019 - 07:54
https://beta.wrap.org.uk/node/2681,Published,04/23/2019 - 07:52
https://beta.wrap.org.uk/node/2680,Published,04/23/2019 - 07:47
https://beta.wrap.org.uk/node/2679,Published,04/23/2019 - 07:42
https://beta.wrap.org.uk/node/2684,Published,04/23/2019 - 07:18
https://beta.wrap.org.uk/node/2690,Published,04/23/2019 - 07:17
https://beta.wrap.org.uk/node/14573,Published,04/22/2019 - 13:25
https://beta.wrap.org.uk/node/2685,Published,04/19/2019 - 07:47
https://beta.wrap.org.uk/node/2686,Published,04/19/2019 - 07:44
https://beta.wrap.org.uk/node/2687,Published,04/19/2019 - 07:42
https://beta.wrap.org.uk/node/2688,Published,04/19/2019 - 07:40
https://beta.wrap.org.uk/node/2689,Published,04/19/2019 - 07:37
https://beta.wrap.org.uk/node/2691,Published,04/19/2019 - 07:33
https://beta.wrap.org.uk/node/2683,Published,04/19/2019 - 07:22
https://beta.wrap.org.uk/node/21685,Published,04/19/2019 - 07:16
https://beta.wrap.org.uk/node/3082,Published,04/19/2019 - 07:09
https://beta.wrap.org.uk/node/2677,Published,04/19/2019 - 06:59
https://beta.wrap.org.uk/node/14564,Published,04/18/2019 - 23:47
https://beta.wrap.org.uk/node/2675,Published,04/18/2019 - 16:47
https://beta.wrap.org.uk/node/2667,Published,04/18/2019 - 16:24
https://beta.wrap.org.uk/node/2670,Published,04/18/2019 - 16:18
https://beta.wrap.org.uk/node/2738,Published,04/18/2019 - 15:47
https://beta.wrap.org.uk/node/3074,Published,04/18/2019 - 15:42
https://beta.wrap.org.uk/node/3073,Published,04/18/2019 - 15:28
https://beta.wrap.org.uk/node/3072,Published,04/18/2019 - 15:27
https://beta.wrap.org.uk/node/3071,Published,04/18/2019 - 15:26
https://beta.wrap.org.uk/node/3070,Published,04/18/2019 - 15:24
https://beta.wrap.org.uk/node/3069,Published,04/18/2019 - 15:20
https://beta.wrap.org.uk/node/3068,Published,04/18/2019 - 15:19
https://beta.wrap.org.uk/node/3067,Published,04/18/2019 - 15:18
https://beta.wrap.org.uk/node/3066,Published,04/18/2019 - 15:17
https://beta.wrap.org.uk/node/3065,Published,04/18/2019 - 15:16
https://beta.wrap.org.uk/node/3064,Published,04/18/2019 - 15:15
https://beta.wrap.org.uk/node/3063,Published,04/18/2019 - 15:14
https://beta.wrap.org.uk/node/3062,Published,04/18/2019 - 15:13
https://beta.wrap.org.uk/node/2775,Published,04/17/2019 - 14:38
https://beta.wrap.org.uk/node/2774,Published,04/17/2019 - 14:29
https://beta.wrap.org.uk/node/3106,Published,04/17/2019 - 13:27
https://beta.wrap.org.uk/node/2890,Published,04/17/2019 - 13:13
https://beta.wrap.org.uk/node/2911,Published,04/17/2019 - 13:09
https://beta.wrap.org.uk/node/3102,Published,04/17/2019 - 09:48
https://beta.wrap.org.uk/node/3103,Published,04/17/2019 - 09:34
https://beta.wrap.org.uk/node/3112,Published,04/17/2019 - 07:54
https://beta.wrap.org.uk/node/2792,Published,04/17/2019 - 07:41
https://beta.wrap.org.uk/node/2791,Published,04/17/2019 - 07:40
https://beta.wrap.org.uk/node/3305,Published,04/17/2019 - 07:18
https://beta.wrap.org.uk/node/2701,Published,04/16/2019 - 15:33
https://beta.wrap.org.uk/node/2700,Published,04/16/2019 - 15:32
https://beta.wrap.org.uk/node/2699,Published,04/16/2019 - 15:31
https://beta.wrap.org.uk/node/2698,Published,04/16/2019 - 15:30
https://beta.wrap.org.uk/node/2697,Published,04/16/2019 - 15:28
https://beta.wrap.org.uk/node/21631,Published,04/16/2019 - 15:25
https://beta.wrap.org.uk/node/3100,Published,04/16/2019 - 14:51
https://beta.wrap.org.uk/node/2753,Published,04/16/2019 - 09:59
https://beta.wrap.org.uk/node/14661,Published,04/15/2019 - 14:07
https://beta.wrap.org.uk/node/2894,Published,04/15/2019 - 13:31
https://beta.wrap.org.uk/node/2895,Published,04/15/2019 - 13:26
https://beta.wrap.org.uk/node/2899,Published,04/15/2019 - 13:22
https://beta.wrap.org.uk/node/14662,Published,04/15/2019 - 08:29
https://beta.wrap.org.uk/node/3246,Published,04/15/2019 - 07:47
https://beta.wrap.org.uk/node/3245,Published,04/11/2019 - 10:35
https://beta.wrap.org.uk/node/3244,Published,04/11/2019 - 10:24
https://beta.wrap.org.uk/node/3243,Published,04/11/2019 - 09:35
https://beta.wrap.org.uk/node/3242,Published,04/11/2019 - 09:27
https://beta.wrap.org.uk/node/3199,Published,04/10/2019 - 10:41
https://beta.wrap.org.uk/node/14586,Published,04/10/2019 - 10:40
https://beta.wrap.org.uk/node/3196,Published,04/10/2019 - 10:38
https://beta.wrap.org.uk/node/3195,Published,04/10/2019 - 10:37
https://beta.wrap.org.uk/node/14585,Published,04/10/2019 - 10:36
https://beta.wrap.org.uk/node/14568,Published,04/09/2019 - 05:47
https://beta.wrap.org.uk/node/2788,Published,04/04/2019 - 09:24
https://beta.wrap.org.uk/node/2771,Published,04/04/2019 - 08:38
https://beta.wrap.org.uk/node/14592,Published,04/03/2019 - 07:41
https://beta.wrap.org.uk/node/14571,Published,04/03/2019 - 06:31
https://beta.wrap.org.uk/node/14574,Published,04/03/2019 - 06:14
https://beta.wrap.org.uk/node/2712,Published,04/02/2019 - 13:32
https://beta.wrap.org.uk/node/14664,Published,04/01/2019 - 13:29
https://beta.wrap.org.uk/node/2641,Published,04/01/2019 - 10:24
https://beta.wrap.org.uk/node/2834,Published,04/01/2019 - 10:22
https://beta.wrap.org.uk/node/2956,Published,04/01/2019 - 10:16
https://beta.wrap.org.uk/node/2835,Published,04/01/2019 - 10:12
https://beta.wrap.org.uk/node/14640,Published,04/01/2019 - 09:39
https://beta.wrap.org.uk/node/2833,Published,04/01/2019 - 08:42
https://beta.wrap.org.uk/node/2832,Published,04/01/2019 - 08:34
https://beta.wrap.org.uk/node/2640,Published,04/01/2019 - 08:30
https://beta.wrap.org.uk/node/3139,Published,04/01/2019 - 08:17
https://beta.wrap.org.uk/node/2639,Published,04/01/2019 - 08:14
https://beta.wrap.org.uk/node/2638,Published,04/01/2019 - 07:55
https://beta.wrap.org.uk/node/2831,Published,04/01/2019 - 07:51
https://beta.wrap.org.uk/node/2637,Published,04/01/2019 - 07:50
https://beta.wrap.org.uk/node/2636,Published,04/01/2019 - 07:45
https://beta.wrap.org.uk/node/2635,Published,04/01/2019 - 07:28
https://beta.wrap.org.uk/node/2823,Published,04/01/2019 - 07:25
https://beta.wrap.org.uk/node/2937,Published,04/01/2019 - 07:10
https://beta.wrap.org.uk/node/2630,Published,04/01/2019 - 07:01
https://beta.wrap.org.uk/node/2955,Published,04/01/2019 - 06:56
https://beta.wrap.org.uk/node/2634,Published,04/01/2019 - 06:53
https://beta.wrap.org.uk/node/2633,Published,04/01/2019 - 06:51
https://beta.wrap.org.uk/node/2939,Published,04/01/2019 - 06:06
https://beta.wrap.org.uk/node/2938,Published,04/01/2019 - 06:04
https://beta.wrap.org.uk/node/2612,Published,04/01/2019 - 06:00
https://beta.wrap.org.uk/node/2931,Published,04/01/2019 - 05:59
https://beta.wrap.org.uk/node/2926,Published,04/01/2019 - 05:52
https://beta.wrap.org.uk/node/2621,Published,04/01/2019 - 05:30
https://beta.wrap.org.uk/node/2830,Published,04/01/2019 - 05:10
https://beta.wrap.org.uk/node/2829,Published,04/01/2019 - 05:09
https://beta.wrap.org.uk/node/2828,Published,04/01/2019 - 05:07
https://beta.wrap.org.uk/node/2827,Published,04/01/2019 - 05:06
https://beta.wrap.org.uk/node/2826,Published,04/01/2019 - 05:05
https://beta.wrap.org.uk/node/2825,Published,04/01/2019 - 05:04
https://beta.wrap.org.uk/node/2824,Published,04/01/2019 - 05:02
https://beta.wrap.org.uk/node/2618,Published,04/01/2019 - 04:53
https://beta.wrap.org.uk/node/2924,Published,04/01/2019 - 04:37
https://beta.wrap.org.uk/node/2933,Published,04/01/2019 - 04:34
https://beta.wrap.org.uk/node/2922,Published,04/01/2019 - 04:29
https://beta.wrap.org.uk/node/2617,Published,04/01/2019 - 04:25
https://beta.wrap.org.uk/node/2616,Published,04/01/2019 - 04:22
https://beta.wrap.org.uk/node/2615,Published,04/01/2019 - 04:19
https://beta.wrap.org.uk/node/2614,Published,04/01/2019 - 04:14
https://beta.wrap.org.uk/node/2613,Published,04/01/2019 - 04:09
395,,
https://beta.wrap.org.uk/node/2787,Published,03/29/2019 - 11:10
https://beta.wrap.org.uk/node/2664,Published,03/28/2019 - 15:08
https://beta.wrap.org.uk/node/2666,Published,03/28/2019 - 15:05
https://beta.wrap.org.uk/node/2870,Published,03/28/2019 - 14:59
https://beta.wrap.org.uk/node/2871,Published,03/28/2019 - 14:59
https://beta.wrap.org.uk/node/2668,Published,03/28/2019 - 14:58
https://beta.wrap.org.uk/node/2659,Published,03/28/2019 - 14:24
https://beta.wrap.org.uk/node/3104,Published,03/27/2019 - 15:05
https://beta.wrap.org.uk/node/2611,Published,03/27/2019 - 09:41
https://beta.wrap.org.uk/node/2610,Published,03/27/2019 - 09:36
https://beta.wrap.org.uk/node/2609,Published,03/27/2019 - 01:06
https://beta.wrap.org.uk/node/2608,Published,03/27/2019 - 01:03
https://beta.wrap.org.uk/node/2607,Published,03/27/2019 - 01:00
https://beta.wrap.org.uk/node/2606,Published,03/27/2019 - 00:58
https://beta.wrap.org.uk/node/2605,Published,03/27/2019 - 00:55
https://beta.wrap.org.uk/node/2660,Published,03/26/2019 - 14:13
https://beta.wrap.org.uk/node/3087,Published,03/26/2019 - 13:43
https://beta.wrap.org.uk/node/2776,Published,03/25/2019 - 12:09
https://beta.wrap.org.uk/node/2963,Published,03/19/2019 - 17:37
https://beta.wrap.org.uk/node/21608,Published,03/19/2019 - 09:11
https://beta.wrap.org.uk/node/17974,Unpublished,03/14/2019 - 12:24
https://beta.wrap.org.uk/node/14657,Published,03/13/2019 - 09:15
https://beta.wrap.org.uk/node/14656,Published,03/13/2019 - 09:03
https://beta.wrap.org.uk/node/14596,Published,03/13/2019 - 08:40
https://beta.wrap.org.uk/node/14595,Published,03/13/2019 - 08:38
https://beta.wrap.org.uk/node/14655,Published,03/13/2019 - 08:16
https://beta.wrap.org.uk/node/14643,Published,03/12/2019 - 16:06
https://beta.wrap.org.uk/node/14653,Published,03/12/2019 - 16:01
https://beta.wrap.org.uk/node/14663,Published,03/12/2019 - 15:57
https://beta.wrap.org.uk/node/14660,Published,03/12/2019 - 15:56
https://beta.wrap.org.uk/node/3143,Published,03/12/2019 - 14:15
https://beta.wrap.org.uk/node/3109,Published,03/12/2019 - 09:51
https://beta.wrap.org.uk/node/2810,Published,03/07/2019 - 00:41
https://beta.wrap.org.uk/node/2954,Published,03/07/2019 - 00:32
https://beta.wrap.org.uk/node/2936,Published,03/06/2019 - 23:22
https://beta.wrap.org.uk/node/2930,Published,03/06/2019 - 23:17
https://beta.wrap.org.uk/node/2929,Published,03/06/2019 - 23:16
https://beta.wrap.org.uk/node/2953,Published,02/26/2019 - 04:10
https://beta.wrap.org.uk/node/2941,Published,02/26/2019 - 04:03
https://beta.wrap.org.uk/node/2944,Published,02/26/2019 - 04:03
https://beta.wrap.org.uk/node/2945,Published,02/26/2019 - 04:02
https://beta.wrap.org.uk/node/2946,Published,02/26/2019 - 04:02
https://beta.wrap.org.uk/node/2947,Published,02/26/2019 - 04:01
https://beta.wrap.org.uk/node/2948,Published,02/26/2019 - 04:01
https://beta.wrap.org.uk/node/2949,Published,02/26/2019 - 04:00
https://beta.wrap.org.uk/node/2950,Published,02/26/2019 - 04:00
https://beta.wrap.org.uk/node/2951,Published,02/26/2019 - 03:59
https://beta.wrap.org.uk/node/2952,Published,02/26/2019 - 03:59
https://beta.wrap.org.uk/node/2942,Published,02/26/2019 - 03:55
https://beta.wrap.org.uk/node/2822,Published,02/20/2019 - 08:36
https://beta.wrap.org.uk/node/2821,Published,02/20/2019 - 08:34
https://beta.wrap.org.uk/node/2820,Published,02/20/2019 - 08:31
https://beta.wrap.org.uk/node/2819,Published,02/20/2019 - 08:28
https://beta.wrap.org.uk/node/2818,Published,02/20/2019 - 08:25
https://beta.wrap.org.uk/node/2817,Published,02/20/2019 - 08:22
https://beta.wrap.org.uk/node/2816,Published,02/20/2019 - 08:19
https://beta.wrap.org.uk/node/2815,Published,02/20/2019 - 08:17
https://beta.wrap.org.uk/node/2814,Published,02/20/2019 - 08:14
https://beta.wrap.org.uk/node/2813,Published,02/20/2019 - 08:12
https://beta.wrap.org.uk/node/2812,Published,02/20/2019 - 08:10
https://beta.wrap.org.uk/node/2811,Published,02/20/2019 - 08:08
https://beta.wrap.org.uk/node/2866,Published,02/07/2019 - 15:59
https://beta.wrap.org.uk/node/2964,Published,02/07/2019 - 15:22
https://beta.wrap.org.uk/node/3276,Published,01/18/2019 - 17:06
https://beta.wrap.org.uk/node/3259,Published,01/18/2019 - 17:06
https://beta.wrap.org.uk/node/3009,Published,01/18/2019 - 17:06
https://beta.wrap.org.uk/node/3024,Published,01/18/2019 - 17:06
https://beta.wrap.org.uk/node/2971,Published,01/18/2019 - 17:06
https://beta.wrap.org.uk/node/2972,Published,01/18/2019 - 17:06
https://beta.wrap.org.uk/node/2973,Published,01/18/2019 - 17:06
https://beta.wrap.org.uk/node/2974,Published,01/18/2019 - 17:06
https://beta.wrap.org.uk/node/2975,Published,01/18/2019 - 17:06
https://beta.wrap.org.uk/node/2976,Published,01/18/2019 - 17:06
https://beta.wrap.org.uk/node/2977,Published,01/18/2019 - 17:06
https://beta.wrap.org.uk/node/2979,Published,01/18/2019 - 17:06
https://beta.wrap.org.uk/node/2980,Published,01/18/2019 - 17:06
https://beta.wrap.org.uk/node/2966,Published,01/18/2019 - 17:06
https://beta.wrap.org.uk/node/2967,Published,01/18/2019 - 17:06
https://beta.wrap.org.uk/node/2969,Published,01/18/2019 - 17:06
https://beta.wrap.org.uk/node/2970,Published,01/18/2019 - 17:06
https://beta.wrap.org.uk/node/2921,Published,01/18/2019 - 17:06
https://beta.wrap.org.uk/node/2940,Published,01/18/2019 - 17:06
https://beta.wrap.org.uk/node/2888,Published,01/18/2019 - 17:05
https://beta.wrap.org.uk/node/2889,Published,01/18/2019 - 17:05
https://beta.wrap.org.uk/node/2891,Published,01/18/2019 - 17:05
https://beta.wrap.org.uk/node/2892,Published,01/18/2019 - 17:05
https://beta.wrap.org.uk/node/2857,Published,01/18/2019 - 17:05
https://beta.wrap.org.uk/node/2858,Published,01/18/2019 - 17:05
https://beta.wrap.org.uk/node/2859,Published,01/18/2019 - 17:05
https://beta.wrap.org.uk/node/2860,Published,01/18/2019 - 17:05
https://beta.wrap.org.uk/node/2862,Published,01/18/2019 - 17:05
https://beta.wrap.org.uk/node/2863,Published,01/18/2019 - 17:05
https://beta.wrap.org.uk/node/2864,Published,01/18/2019 - 17:05
https://beta.wrap.org.uk/node/2865,Published,01/18/2019 - 17:05
https://beta.wrap.org.uk/node/2867,Published,01/18/2019 - 17:05
https://beta.wrap.org.uk/node/2868,Published,01/18/2019 - 17:05
https://beta.wrap.org.uk/node/2885,Published,01/18/2019 - 17:05
https://beta.wrap.org.uk/node/2887,Published,01/18/2019 - 17:05
https://beta.wrap.org.uk/node/2836,Published,01/18/2019 - 17:05
https://beta.wrap.org.uk/node/2837,Published,01/18/2019 - 17:05
https://beta.wrap.org.uk/node/2838,Published,01/18/2019 - 17:05
https://beta.wrap.org.uk/node/2839,Published,01/18/2019 - 17:05
https://beta.wrap.org.uk/node/2840,Published,01/18/2019 - 17:05
https://beta.wrap.org.uk/node/2841,Published,01/18/2019 - 17:05
https://beta.wrap.org.uk/node/2842,Published,01/18/2019 - 17:05
https://beta.wrap.org.uk/node/2843,Published,01/18/2019 - 17:05
https://beta.wrap.org.uk/node/2844,Published,01/18/2019 - 17:05
https://beta.wrap.org.uk/node/2845,Published,01/18/2019 - 17:05
https://beta.wrap.org.uk/node/2846,Published,01/18/2019 - 17:05
https://beta.wrap.org.uk/node/2847,Published,01/18/2019 - 17:05
https://beta.wrap.org.uk/node/2848,Published,01/18/2019 - 17:05
https://beta.wrap.org.uk/node/2849,Published,01/18/2019 - 17:05
https://beta.wrap.org.uk/node/2850,Published,01/18/2019 - 17:05
https://beta.wrap.org.uk/node/2851,Published,01/18/2019 - 17:05
https://beta.wrap.org.uk/node/2852,Published,01/18/2019 - 17:05
https://beta.wrap.org.uk/node/2853,Published,01/18/2019 - 17:05
https://beta.wrap.org.uk/node/2854,Published,01/18/2019 - 17:05
https://beta.wrap.org.uk/node/2855,Published,01/18/2019 - 17:05
https://beta.wrap.org.uk/node/2856,Published,01/18/2019 - 17:05
https://beta.wrap.org.uk/node/2802,Published,01/18/2019 - 17:05
https://beta.wrap.org.uk/node/2724,Published,01/18/2019 - 17:04
https://beta.wrap.org.uk/node/2651,Published,01/18/2019 - 17:04
https://beta.wrap.org.uk/node/2654,Published,01/18/2019 - 17:04
https://beta.wrap.org.uk/node/2661,Published,01/18/2019 - 17:04
https://beta.wrap.org.uk/node/2602,Published,01/18/2019 - 17:04
https://beta.wrap.org.uk/node/393,Published,01/11/2019 - 12:20
https://beta.wrap.org.uk/node/392,Published,01/11/2019 - 11:59
https://beta.wrap.org.uk/node/391,Published,01/11/2019 - 11:57
https://beta.wrap.org.uk/node/390,Published,01/11/2019 - 11:56
https://beta.wrap.org.uk/node/389,Published,01/11/2019 - 11:55
https://beta.wrap.org.uk/node/388,Published,01/11/2019 - 11:55
https://beta.wrap.org.uk/node/387,Published,01/11/2019 - 11:54
https://beta.wrap.org.uk/node/386,Published,01/11/2019 - 11:54
https://beta.wrap.org.uk/node/385,Published,01/11/2019 - 11:53
https://beta.wrap.org.uk/node/384,Published,01/11/2019 - 11:52
https://beta.wrap.org.uk/node/383,Published,01/11/2019 - 11:52
https://beta.wrap.org.uk/node/382,Published,01/11/2019 - 11:51
https://beta.wrap.org.uk/node/381,Published,01/11/2019 - 11:49
https://beta.wrap.org.uk/node/380,Published,01/11/2019 - 11:48
https://beta.wrap.org.uk/node/377,Published,01/11/2019 - 11:43
